<?xml version="1.0" encoding="UTF-8"?>
<CustomTab xmlns="http://soap.sforce.com/2006/04/metadata">
    <label>Area Manager Queue Mobile</label>
    <mobileReady>false</mobileReady>
    <motif>Custom56: Bottle</motif>
    <page>skedAreaManagerQueueMobile</page>
</CustomTab>
